﻿Log file open, 09/13/22 11:31:13
LogWindows: Failed to load 'aqProf.dll' (GetLastError=126)
LogWindows: File 'aqProf.dll' does not exist
LogWindows: Failed to load 'VtuneApi.dll' (GetLastError=126)
LogWindows: File 'VtuneApi.dll' does not exist
LogWindows: Failed to load 'VtuneApi32e.dll' (GetLastError=126)
LogWindows: File 'VtuneApi32e.dll' does not exist
LogConsoleResponse: Display: Failed to find resolution value strings in scalability ini. Falling back to default.
LogInit: Display: Running engine for game: PintBoll
LogPakFile: Registered encryption key '00000000000000000000000000000000': 0 pak files mounted, 0 remain pending
LogPlatformFile: Not using cached read wrapper
LogTaskGraph: Started task graph with 5 named threads and 71 total threads with 3 sets of task threads.
LogStats: Stats thread started at 1.110241
LogD3D11RHI: Loaded GFSDK_Aftermath_Lib.x64.dll
LogICUInternationalization: ICU TimeZone Detection - Raw Offset: +3:00, Platform Override: ''
LogPluginManager: Mounting plugin Paper2D
LogPluginManager: Mounting plugin AISupport
LogPluginManager: Mounting plugin LightPropagationVolume
LogPluginManager: Mounting plugin ActorLayerUtilities
LogPluginManager: Mounting plugin AnimationSharing
LogPluginManager: Mounting plugin CLionSourceCodeAccess
LogPluginManager: Mounting plugin CodeLiteSourceCodeAccess
LogPluginManager: Mounting plugin GitSourceControl
LogPluginManager: Mounting plugin KDevelopSourceCodeAccess
LogPluginManager: Mounting plugin NullSourceCodeAccess
LogPluginManager: Mounting plugin PerforceSourceControl
LogPluginManager: Mounting plugin SubversionSourceControl
LogPluginManager: Mounting plugin UObjectPlugin
LogPluginManager: Mounting plugin VisualStudioCodeSourceCodeAccess
LogPluginManager: Mounting plugin VisualStudioSourceCodeAccess
LogPluginManager: Mounting plugin XCodeSourceCodeAccess
LogPluginManager: Mounting plugin AssetManagerEditor
LogPluginManager: Mounting plugin CryptoKeys
LogPluginManager: Mounting plugin DataValidation
LogPluginManager: Mounting plugin FacialAnimation
LogPluginManager: Mounting plugin GameplayTagsEditor
LogPluginManager: Mounting plugin MacGraphicsSwitching
LogPluginManager: Mounting plugin MaterialAnalyzer
LogPluginManager: Mounting plugin MobileLauncherProfileWizard
LogPluginManager: Mounting plugin PluginBrowser
LogPluginManager: Mounting plugin SpeedTreeImporter
LogPluginManager: Mounting plugin DatasmithContent
LogPluginManager: Mounting plugin VariantManagerContent
LogPluginManager: Mounting plugin AlembicImporter
LogPluginManager: Mounting plugin AppleImageUtils
LogPluginManager: Mounting plugin AppleVision
LogPluginManager: Mounting plugin BackChannel
LogPluginManager: Mounting plugin CharacterAI
LogPluginManager: Mounting plugin GeometryCache
LogPluginManager: Mounting plugin HTML5Networking
LogPluginManager: Mounting plugin ProxyLODPlugin
LogPluginManager: Mounting plugin SkeletalReduction
LogPluginManager: Mounting plugin MagicLeap
LogPluginManager: Mounting plugin MagicLeapMedia
LogPluginManager: Mounting plugin AndroidMedia
LogPluginManager: Mounting plugin AvfMedia
LogPluginManager: Mounting plugin ImgMedia
LogPluginManager: Mounting plugin LinearTimecode
LogPluginManager: Mounting plugin MediaCompositing
LogPluginManager: Mounting plugin MediaPlayerEditor
LogPluginManager: Mounting plugin WebMMedia
LogPluginManager: Mounting plugin WmfMedia
LogPluginManager: Mounting plugin TcpMessaging
LogPluginManager: Mounting plugin UdpMessaging
LogPluginManager: Mounting plugin ActorSequence
LogPluginManager: Mounting plugin LevelSequenceEditor
LogPluginManager: Mounting plugin MatineeToLevelSequence
LogPluginManager: Mounting plugin NetcodeUnitTest
LogPluginManager: Mounting plugin NUTUnrealEngine4
LogPluginManager: Mounting plugin OnlineSubsystemGooglePlay
LogPluginManager: Mounting plugin OnlineSubsystemIOS
LogPluginManager: Mounting plugin OnlineSubsystem
LogPluginManager: Mounting plugin OnlineSubsystemNull
LogPluginManager: Mounting plugin OnlineSubsystemUtils
LogPluginManager: Mounting plugin LauncherChunkInstaller
LogPluginManager: Mounting plugin AndroidDeviceProfileSelector
LogPluginManager: Mounting plugin AndroidMoviePlayer
LogPluginManager: Mounting plugin AndroidPermission
LogPluginManager: Mounting plugin AppleMoviePlayer
LogPluginManager: Mounting plugin ArchVisCharacter
LogPluginManager: Mounting plugin AudioCapture
LogPluginManager: Mounting plugin CableComponent
LogPluginManager: Mounting plugin CustomMeshComponent
LogPluginManager: Mounting plugin EditableMesh
LogPluginManager: Mounting plugin ExampleDeviceProfileSelector
LogPluginManager: Mounting plugin Firebase
LogPluginManager: Mounting plugin GoogleCloudMessaging
LogPluginManager: Mounting plugin IOSDeviceProfileSelector
LogPluginManager: Mounting plugin LinuxDeviceProfileSelector
LogPluginManager: Mounting plugin LocationServicesBPLibrary
LogPluginManager: Mounting plugin MobilePatchingUtils
LogPluginManager: Mounting plugin OculusVR
LogPluginManager: Mounting plugin PhysXVehicles
LogPluginManager: Mounting plugin ProceduralMeshComponent
LogPluginManager: Mounting plugin RuntimePhysXCooking
LogPluginManager: Mounting plugin SignificanceManager
LogPluginManager: Mounting plugin SteamVR
LogPluginManager: Mounting plugin WebMMoviePlayer
LogPluginManager: Mounting plugin WindowsMoviePlayer
LogInit: Using libcurl 7.55.1-DEV
LogInit:  - built for x86_64-pc-win32
LogInit:  - supports SSL with OpenSSL/1.1.1
LogInit:  - supports HTTP deflate (compression) using libz 1.2.8
LogInit:  - other features:
LogInit:      CURL_VERSION_SSL
LogInit:      CURL_VERSION_LIBZ
LogInit:      CURL_VERSION_IPV6
LogInit:      CURL_VERSION_ASYNCHDNS
LogInit:      CURL_VERSION_LARGEFILE
LogInit:      CURL_VERSION_IDN
LogInit:  CurlRequestOptions (configurable via config and command line):
LogInit:  - bVerifyPeer = true  - Libcurl will verify peer certificate
LogInit:  - bUseHttpProxy = false  - Libcurl will NOT use HTTP proxy
LogInit:  - bDontReuseConnections = false  - Libcurl will reuse connections
LogInit:  - MaxHostConnections = 16  - Libcurl will limit the number of connections to a host
LogInit:  - LocalHostAddr = Default
LogInit:  - BufferSize = 65536
LogInit: WinSock: version 1.1 (2.2), MaxSocks=32767, MaxUdp=65467
LogInit: Build: ++UE4+Release-4.22-CL-7053642
LogInit: Engine Version: 4.22.3-7053642+++UE4+Release-4.22
LogInit: Compatible Engine Version: 4.22.0-5660361+++UE4+Release-4.22
LogInit: Net CL: 5660361
LogInit: OS: Windows 10 (Release 2009) (), CPU: Intel(R) Xeon(R) CPU E5-2678 v3 @ 2.50GHz, GPU: NVIDIA GeForce RTX 3060 Ti
LogInit: Compiled (64-bit): Jun 18 2019 03:09:11
LogInit: Compiled with Visual C++: 19.16.27025.01
LogInit: Build Configuration: Development
LogInit: Branch Name: ++UE4+Release-4.22
LogInit: Command Line: 
LogInit: Base Directory: B:/EGS/Games/UE_4.22/Engine/Binaries/Win64/
LogInit: Installed Engine Build: 1
LogDevObjectVersion: Number of dev versions registered: 23
LogDevObjectVersion:   Dev-Blueprints (B0D832E4-1F89-4F0D-ACCF-7EB736FD4AA2): 10
LogDevObjectVersion:   Dev-Build (E1C64328-A22C-4D53-A36C-8E866417BD8C): 0
LogDevObjectVersion:   Dev-Core (375EC13C-06E4-48FB-B500-84F0262A717E): 3
LogDevObjectVersion:   Dev-Editor (E4B068ED-F494-42E9-A231-DA0B2E46BB41): 30
LogDevObjectVersion:   Dev-Framework (CFFC743F-43B0-4480-9391-14DF171D2073): 35
LogDevObjectVersion:   Dev-Mobile (B02B49B5-BB20-44E9-A304-32B752E40360): 2
LogDevObjectVersion:   Dev-Networking (A4E4105C-59A1-49B5-A7C5-40C4547EDFEE): 0
LogDevObjectVersion:   Dev-Online (39C831C9-5AE6-47DC-9A44-9C173E1C8E7C): 0
LogDevObjectVersion:   Dev-Physics (78F01B33-EBEA-4F98-B9B4-84EACCB95AA2): 0
LogDevObjectVersion:   Dev-Platform (6631380F-2D4D-43E0-8009-CF276956A95A): 0
LogDevObjectVersion:   Dev-Rendering (12F88B9F-8875-4AFC-A67C-D90C383ABD29): 28
LogDevObjectVersion:   Dev-Sequencer (7B5AE74C-D270-4C10-A958-57980B212A5A): 11
LogDevObjectVersion:   Dev-VR (D7296918-1DD6-4BDD-9DE2-64A83CC13884): 2
LogDevObjectVersion:   Dev-LoadTimes (C2A15278-BFE7-4AFE-6C17-90FF531DF755): 1
LogDevObjectVersion:   Private-Geometry (6EACA3D4-40EC-4CC1-B786-8BED09428FC5): 3
LogDevObjectVersion:   Dev-AnimPhys (29E575DD-E0A3-4627-9D10-D276232CDCEA): 17
LogDevObjectVersion:   Dev-Anim (AF43A65D-7FD3-4947-9873-3E8ED9C1BB05): 2
LogDevObjectVersion:   Dev-ReflectionCapture (6B266CEC-1EC7-4B8F-A30B-E4D90942FC07): 1
LogDevObjectVersion:   Dev-Automation (0DF73D61-A23F-47EA-B727-89E90C41499A): 1
LogDevObjectVersion:   FortniteMain (601D1886-AC64-4F84-AA16-D3DE0DEAC7D6): 25
LogDevObjectVersion:   Dev-Enterprise (9DFFBCD6-494F-0158-E221-12823C92A888): 6
LogDevObjectVersion:   Dev-Niagara (F2AED0AC-9AFE-416F-8664-AA7FFA26D6FC): 1
LogDevObjectVersion:   Dev-Destruction (174F1F0B-B4C6-45A5-B13F-2EE8D0FB917D): 2
LogInit: Presizing for max 16777216 objects, including 0 objects not considered by GC, pre-allocating 0 bytes for permanent pool.
LogInit: Object subsystem initialized
LogConfig: Setting CVar [[con.DebugEarlyDefault:1]]
LogConfig: Setting CVar [[r.setres:1280x720]]
[2022.09.13-08.31.13:552][  0]LogConfig: Setting CVar [[r.VSync:0]]
[2022.09.13-08.31.13:552][  0]LogConfig: Setting CVar [[r.RHICmdBypass:0]]
[2022.09.13-08.31.13:552][  0]LogConfig: Applying CVar settings from Section [/Script/Engine.RendererSettings] File [B:/SaveGit/PintBoll/Saved/Config/Windows/Engine.ini]
[2022.09.13-08.31.13:552][  0]LogConfig: Setting CVar [[r.GPUCrashDebugging:0]]
[2022.09.13-08.31.13:552][  0]LogConfig: Setting CVar [[r.DefaultFeature.AutoExposure.ExtendDefaultLuminanceRange:1]]
[2022.09.13-08.31.13:552][  0]LogConfig: Applying CVar settings from Section [/Script/Engine.RendererOverrideSettings] File [B:/SaveGit/PintBoll/Saved/Config/Windows/Engine.ini]
[2022.09.13-08.31.13:552][  0]LogConfig: Applying CVar settings from Section [/Script/Engine.StreamingSettings] File [B:/SaveGit/PintBoll/Saved/Config/Windows/Engine.ini]
[2022.09.13-08.31.13:552][  0]LogConfig: Setting CVar [[s.MinBulkDataSizeForAsyncLoading:131072]]
[2022.09.13-08.31.13:552][  0]LogConfig: Setting CVar [[s.AsyncLoadingThreadEnabled:0]]
[2022.09.13-08.31.13:552][  0]LogConfig: Setting CVar [[s.EventDrivenLoaderEnabled:1]]
[2022.09.13-08.31.13:552][  0]LogConfig: Setting CVar [[s.WarnIfTimeLimitExceeded:0]]
[2022.09.13-08.31.13:552][  0]LogConfig: Setting CVar [[s.TimeLimitExceededMultiplier:1.5]]
[2022.09.13-08.31.13:552][  0]LogConfig: Setting CVar [[s.TimeLimitExceededMinTime:0.005]]
[2022.09.13-08.31.13:552][  0]LogConfig: Setting CVar [[s.UseBackgroundLevelStreaming:1]]
[2022.09.13-08.31.13:552][  0]LogConfig: Setting CVar [[s.PriorityAsyncLoadingExtraTime:15.0]]
[2022.09.13-08.31.13:552][  0]LogConfig: Setting CVar [[s.LevelStreamingActorsUpdateTimeLimit:5.0]]
[2022.09.13-08.31.13:552][  0]LogConfig: Setting CVar [[s.PriorityLevelStreamingActorsUpdateExtraTime:5.0]]
[2022.09.13-08.31.13:552][  0]LogConfig: Setting CVar [[s.LevelStreamingComponentsRegistrationGranularity:10]]
[2022.09.13-08.31.13:552][  0]LogConfig: Setting CVar [[s.UnregisterComponentsTimeLimit:1.0]]
[2022.09.13-08.31.13:552][  0]LogConfig: Setting CVar [[s.LevelStreamingComponentsUnregistrationGranularity:5]]
[2022.09.13-08.31.13:552][  0]LogConfig: Applying CVar settings from Section [/Script/Engine.GarbageCollectionSettings] File [B:/SaveGit/PintBoll/Saved/Config/Windows/Engine.ini]
[2022.09.13-08.31.13:552][  0]LogConfig: Setting CVar [[gc.MaxObjectsNotConsideredByGC:1]]
[2022.09.13-08.31.13:552][  0]LogConfig: Setting CVar [[gc.SizeOfPermanentObjectPool:0]]
[2022.09.13-08.31.13:552][  0]LogConfig: Setting CVar [[gc.FlushStreamingOnGC:0]]
[2022.09.13-08.31.13:552][  0]LogConfig: Setting CVar [[gc.NumRetriesBeforeForcingGC:10]]
[2022.09.13-08.31.13:552][  0]LogConfig: Setting CVar [[gc.AllowParallelGC:1]]
[2022.09.13-08.31.13:552][  0]LogConfig: Setting CVar [[gc.TimeBetweenPurgingPendingKillObjects:61.1]]
[2022.09.13-08.31.13:552][  0]LogConfig: Setting CVar [[gc.MaxObjectsInEditor:16777216]]
[2022.09.13-08.31.13:552][  0]LogConfig: Setting CVar [[gc.IncrementalBeginDestroyEnabled:1]]
[2022.09.13-08.31.13:552][  0]LogConfig: Setting CVar [[gc.CreateGCClusters:1]]
[2022.09.13-08.31.13:552][  0]LogConfig: Setting CVar [[gc.MinGCClusterSize:5]]
[2022.09.13-08.31.13:552][  0]LogConfig: Setting CVar [[gc.ActorClusteringEnabled:0]]
[2022.09.13-08.31.13:552][  0]LogConfig: Setting CVar [[gc.BlueprintClusteringEnabled:0]]
[2022.09.13-08.31.13:552][  0]LogConfig: Setting CVar [[gc.UseDisregardForGCOnDedicatedServers:0]]
[2022.09.13-08.31.13:552][  0]LogConfig: Applying CVar settings from Section [/Script/Engine.NetworkSettings] File [B:/SaveGit/PintBoll/Saved/Config/Windows/Engine.ini]
[2022.09.13-08.31.13:552][  0]LogConfig: Applying CVar settings from Section [/Script/UnrealEd.CookerSettings] File [B:/SaveGit/PintBoll/Saved/Config/Windows/Engine.ini]
[2022.09.13-08.31.13:554][  0]LogConfig: Applying CVar settings from Section [ViewDistanceQuality@3] File [B:/SaveGit/PintBoll/Saved/Config/Windows/Scalability.ini]
[2022.09.13-08.31.13:554][  0]LogConfig: Setting CVar [[r.SkeletalMeshLODBias:0]]
[2022.09.13-08.31.13:554][  0]LogConfig: Setting CVar [[r.ViewDistanceScale:1.0]]
[2022.09.13-08.31.13:554][  0]LogConfig: Applying CVar settings from Section [AntiAliasingQuality@3] File [B:/SaveGit/PintBoll/Saved/Config/Windows/Scalability.ini]
[2022.09.13-08.31.13:554][  0]LogConfig: Setting CVar [[r.PostProcessAAQuality:4]]
[2022.09.13-08.31.13:554][  0]LogConfig: Applying CVar settings from Section [ShadowQuality@3] File [B:/SaveGit/PintBoll/Saved/Config/Windows/Scalability.ini]
[2022.09.13-08.31.13:554][  0]LogConfig: Setting CVar [[r.LightFunctionQuality:1]]
[2022.09.13-08.31.13:554][  0]LogConfig: Setting CVar [[r.ShadowQuality:5]]
[2022.09.13-08.31.13:554][  0]LogConfig: Setting CVar [[r.Shadow.CSM.MaxCascades:10]]
[2022.09.13-08.31.13:554][  0]LogConfig: Setting CVar [[r.Shadow.MaxResolution:2048]]
[2022.09.13-08.31.13:554][  0]LogConfig: Setting CVar [[r.Shadow.MaxCSMResolution:2048]]
[2022.09.13-08.31.13:554][  0]LogConfig: Setting CVar [[r.Shadow.RadiusThreshold:0.01]]
[2022.09.13-08.31.13:554][  0]LogConfig: Setting CVar [[r.Shadow.DistanceScale:1.0]]
[2022.09.13-08.31.13:554][  0]LogConfig: Setting CVar [[r.Shadow.CSM.TransitionScale:1.0]]
[2022.09.13-08.31.13:554][  0]LogConfig: Setting CVar [[r.Shadow.PreShadowResolutionFactor:1.0]]
[2022.09.13-08.31.13:554][  0]LogConfig: Setting CVar [[r.DistanceFieldShadowing:1]]
[2022.09.13-08.31.13:554][  0]LogConfig: Setting CVar [[r.DistanceFieldAO:1]]
[2022.09.13-08.31.13:554][  0]LogConfig: Setting CVar [[r.AOQuality:2]]
[2022.09.13-08.31.13:555][  0]LogConfig: Setting CVar [[r.VolumetricFog:1]]
[2022.09.13-08.31.13:555][  0]LogConfig: Setting CVar [[r.VolumetricFog.GridPixelSize:8]]
[2022.09.13-08.31.13:555][  0]LogConfig: Setting CVar [[r.VolumetricFog.GridSizeZ:128]]
[2022.09.13-08.31.13:555][  0]LogConfig: Setting CVar [[r.VolumetricFog.HistoryMissSupersampleCount:4]]
[2022.09.13-08.31.13:555][  0]LogConfig: Setting CVar [[r.LightMaxDrawDistanceScale:1]]
[2022.09.13-08.31.13:555][  0]LogConfig: Setting CVar [[r.CapsuleShadows:1]]
[2022.09.13-08.31.13:555][  0]LogConfig: Applying CVar settings from Section [PostProcessQuality@3] File [B:/SaveGit/PintBoll/Saved/Config/Windows/Scalability.ini]
[2022.09.13-08.31.13:555][  0]LogConfig: Setting CVar [[r.MotionBlurQuality:4]]
[2022.09.13-08.31.13:555][  0]LogConfig: Setting CVar [[r.AmbientOcclusionMipLevelFactor:0.4]]
[2022.09.13-08.31.13:555][  0]LogConfig: Setting CVar [[r.AmbientOcclusionMaxQuality:100]]
[2022.09.13-08.31.13:555][  0]LogConfig: Setting CVar [[r.AmbientOcclusionLevels:-1]]
[2022.09.13-08.31.13:555][  0]LogConfig: Setting CVar [[r.AmbientOcclusionRadiusScale:1.0]]
[2022.09.13-08.31.13:555][  0]LogConfig: Setting CVar [[r.DepthOfFieldQuality:2]]
[2022.09.13-08.31.13:555][  0]LogConfig: Setting CVar [[r.RenderTargetPoolMin:400]]
[2022.09.13-08.31.13:555][  0]LogConfig: Setting CVar [[r.LensFlareQuality:2]]
[2022.09.13-08.31.13:555][  0]LogConfig: Setting CVar [[r.SceneColorFringeQuality:1]]
[2022.09.13-08.31.13:555][  0]LogConfig: Setting CVar [[r.EyeAdaptationQuality:2]]
[2022.09.13-08.31.13:555][  0]LogConfig: Setting CVar [[r.BloomQuality:5]]
[2022.09.13-08.31.13:555][  0]LogConfig: Setting CVar [[r.FastBlurThreshold:100]]
[2022.09.13-08.31.13:555][  0]LogConfig: Setting CVar [[r.Upscale.Quality:3]]
[2022.09.13-08.31.13:555][  0]LogConfig: Setting CVar [[r.Tonemapper.GrainQuantization:1]]
[2022.09.13-08.31.13:555][  0]LogConfig: Setting CVar [[r.LightShaftQuality:1]]
[2022.09.13-08.31.13:555][  0]LogConfig: Setting CVar [[r.Filter.SizeScale:1]]
[2022.09.13-08.31.13:555][  0]LogConfig: Setting CVar [[r.Tonemapper.Quality:5]]
[2022.09.13-08.31.13:555][  0]LogConfig: Setting CVar [[r.DOF.Gather.AccumulatorQuality:1        ; higher gathering accumulator quality]]
[2022.09.13-08.31.13:555][  0]LogConfig: Setting CVar [[r.DOF.Gather.PostfilterMethod:1          ; Median3x3 postfilering method]]
[2022.09.13-08.31.13:555][  0]LogConfig: Setting CVar [[r.DOF.Gather.EnableBokehSettings:0       ; no bokeh simulation when gathering]]
[2022.09.13-08.31.13:555][  0]LogConfig: Setting CVar [[r.DOF.Gather.RingCount:4                 ; medium number of samples when gathering]]
[2022.09.13-08.31.13:555][  0]LogConfig: Setting CVar [[r.DOF.Scatter.ForegroundCompositing:1    ; additive foreground scattering]]
[2022.09.13-08.31.13:555][  0]LogConfig: Setting CVar [[r.DOF.Scatter.BackgroundCompositing:2    ; additive background scattering]]
[2022.09.13-08.31.13:555][  0]LogConfig: Setting CVar [[r.DOF.Scatter.EnableBokehSettings:1      ; bokeh simulation when scattering]]
[2022.09.13-08.31.13:555][  0]LogConfig: Setting CVar [[r.DOF.Scatter.MaxSpriteRatio:0.1         ; only a maximum of 10% of scattered bokeh]]
[2022.09.13-08.31.13:555][  0]LogConfig: Setting CVar [[r.DOF.Recombine.Quality:1                ; cheap slight out of focus]]
[2022.09.13-08.31.13:555][  0]LogConfig: Setting CVar [[r.DOF.Recombine.EnableBokehSettings:0    ; no bokeh simulation on slight out of focus]]
[2022.09.13-08.31.13:555][  0]LogConfig: Setting CVar [[r.DOF.TemporalAAQuality:1                ; more stable temporal accumulation]]
[2022.09.13-08.31.13:555][  0]LogConfig: Setting CVar [[r.DOF.Kernel.MaxForegroundRadius:0.025]]
[2022.09.13-08.31.13:555][  0]LogConfig: Setting CVar [[r.DOF.Kernel.MaxBackgroundRadius:0.025]]
[2022.09.13-08.31.13:555][  0]LogConfig: Applying CVar settings from Section [TextureQuality@3] File [B:/SaveGit/PintBoll/Saved/Config/Windows/Scalability.ini]
[2022.09.13-08.31.13:555][  0]LogConfig: Setting CVar [[r.Streaming.MipBias:0]]
[2022.09.13-08.31.13:555][  0]LogConfig: Setting CVar [[r.Streaming.AmortizeCPUToGPUCopy:0]]
[2022.09.13-08.31.13:555][  0]LogConfig: Setting CVar [[r.Streaming.MaxNumTexturesToStreamPerFrame:0]]
[2022.09.13-08.31.13:555][  0]LogConfig: Setting CVar [[r.Streaming.Boost:1]]
[2022.09.13-08.31.13:555][  0]LogConfig: Setting CVar [[r.MaxAnisotropy:8]]
[2022.09.13-08.31.13:555][  0]LogConfig: Setting CVar [[r.Streaming.LimitPoolSizeToVRAM:0]]
[2022.09.13-08.31.13:555][  0]LogConfig: Setting CVar [[r.Streaming.PoolSize:1000]]
[2022.09.13-08.31.13:555][  0]LogConfig: Setting CVar [[r.Streaming.MaxEffectiveScreenSize:0]]
[2022.09.13-08.31.13:555][  0]LogConfig: Applying CVar settings from Section [EffectsQuality@3] File [B:/SaveGit/PintBoll/Saved/Config/Windows/Scalability.ini]
[2022.09.13-08.31.13:555][  0]LogConfig: Setting CVar [[r.TranslucencyLightingVolumeDim:64]]
[2022.09.13-08.31.13:555][  0]LogConfig: Setting CVar [[r.RefractionQuality:2]]
[2022.09.13-08.31.13:555][  0]LogConfig: Setting CVar [[r.SSR.Quality:3]]
[2022.09.13-08.31.13:555][  0]LogConfig: Setting CVar [[r.SceneColorFormat:4]]
[2022.09.13-08.31.13:555][  0]LogConfig: Setting CVar [[r.DetailMode:2]]
[2022.09.13-08.31.13:555][  0]LogConfig: Setting CVar [[r.TranslucencyVolumeBlur:1]]
[2022.09.13-08.31.13:555][  0]LogConfig: Setting CVar [[r.MaterialQualityLevel:1 ; High quality]]
[2022.09.13-08.31.13:555][  0]LogConfig: Setting CVar [[r.SSS.Scale:1]]
[2022.09.13-08.31.13:555][  0]LogConfig: Setting CVar [[r.SSS.SampleSet:2]]
[2022.09.13-08.31.13:555][  0]LogConfig: Setting CVar [[r.SSS.Quality:1]]
[2022.09.13-08.31.13:555][  0]LogConfig: Setting CVar [[r.SSS.HalfRes:1]]
[2022.09.13-08.31.13:555][  0]LogConfig: Setting CVar [[r.EmitterSpawnRateScale:1.0]]
[2022.09.13-08.31.13:555][  0]LogConfig: Setting CVar [[r.ParticleLightQuality:2]]
[2022.09.13-08.31.13:555][  0]LogConfig: Applying CVar settings from Section [FoliageQuality@3] File [B:/SaveGit/PintBoll/Saved/Config/Windows/Scalability.ini]
[2022.09.13-08.31.13:555][  0]LogConfig: Setting CVar [[foliage.DensityScale:1.0]]
[2022.09.13-08.31.13:555][  0]LogConfig: Setting CVar [[grass.DensityScale:1.0]]
[2022.09.13-08.31.13:555][  0]LogInit: Selected Device Profile: [Windows]
[2022.09.13-08.31.13:555][  0]LogInit: Applying CVar settings loaded from the selected device profile: [Windows]
[2022.09.13-08.31.13:573][  0]LogHAL: Display: Platform has ~ 32 GB [34257448960 / 34359738368 / 32], which maps to Largest [LargestMinGB=32, LargerMinGB=12, DefaultMinGB=8, SmallerMinGB=6, SmallestMinGB=0)
[2022.09.13-08.31.13:573][  0]LogConfig: Setting CVar [[r.Vulkan.UseRealUBs:0		; Required until we fix HLR fall-out]]
[2022.09.13-08.31.13:573][  0]LogInit: Going up to parent DeviceProfile []
[2022.09.13-08.31.13:573][  0]LogConfig: Applying CVar settings from Section [ViewDistanceQuality@3] File [B:/SaveGit/PintBoll/Saved/Config/Windows/Scalability.ini]
[2022.09.13-08.31.13:573][  0]LogConfig: Setting CVar [[r.SkeletalMeshLODBias:0]]
[2022.09.13-08.31.13:573][  0]LogConfig: Setting CVar [[r.ViewDistanceScale:1.0]]
[2022.09.13-08.31.13:573][  0]LogConfig: Applying CVar settings from Section [AntiAliasingQuality@3] File [B:/SaveGit/PintBoll/Saved/Config/Windows/Scalability.ini]
[2022.09.13-08.31.13:573][  0]LogConfig: Setting CVar [[r.PostProcessAAQuality:4]]
[2022.09.13-08.31.13:573][  0]LogConfig: Applying CVar settings from Section [ShadowQuality@3] File [B:/SaveGit/PintBoll/Saved/Config/Windows/Scalability.ini]
[2022.09.13-08.31.13:573][  0]LogConfig: Setting CVar [[r.LightFunctionQuality:1]]
[2022.09.13-08.31.13:573][  0]LogConfig: Setting CVar [[r.ShadowQuality:5]]
[2022.09.13-08.31.13:573][  0]LogConfig: Setting CVar [[r.Shadow.CSM.MaxCascades:10]]
[2022.09.13-08.31.13:573][  0]LogConfig: Setting CVar [[r.Shadow.MaxResolution:2048]]
[2022.09.13-08.31.13:573][  0]LogConfig: Setting CVar [[r.Shadow.MaxCSMResolution:2048]]
[2022.09.13-08.31.13:573][  0]LogConfig: Setting CVar [[r.Shadow.RadiusThreshold:0.01]]
[2022.09.13-08.31.13:573][  0]LogConfig: Setting CVar [[r.Shadow.DistanceScale:1.0]]
[2022.09.13-08.31.13:573][  0]LogConfig: Setting CVar [[r.Shadow.CSM.TransitionScale:1.0]]
[2022.09.13-08.31.13:573][  0]LogConfig: Setting CVar [[r.Shadow.PreShadowResolutionFactor:1.0]]
[2022.09.13-08.31.13:573][  0]LogConfig: Setting CVar [[r.DistanceFieldShadowing:1]]
[2022.09.13-08.31.13:573][  0]LogConfig: Setting CVar [[r.DistanceFieldAO:1]]
[2022.09.13-08.31.13:573][  0]LogConfig: Setting CVar [[r.AOQuality:2]]
[2022.09.13-08.31.13:573][  0]LogConfig: Setting CVar [[r.VolumetricFog:1]]
[2022.09.13-08.31.13:573][  0]LogConfig: Setting CVar [[r.VolumetricFog.GridPixelSize:8]]
[2022.09.13-08.31.13:573][  0]LogConfig: Setting CVar [[r.VolumetricFog.GridSizeZ:128]]
[2022.09.13-08.31.13:573][  0]LogConfig: Setting CVar [[r.VolumetricFog.HistoryMissSupersampleCount:4]]
[2022.09.13-08.31.13:573][  0]LogConfig: Setting CVar [[r.LightMaxDrawDistanceScale:1]]
[2022.09.13-08.31.13:573][  0]LogConfig: Setting CVar [[r.CapsuleShadows:1]]
[2022.09.13-08.31.13:573][  0]LogConfig: Applying CVar settings from Section [PostProcessQuality@3] File [B:/SaveGit/PintBoll/Saved/Config/Windows/Scalability.ini]
[2022.09.13-08.31.13:573][  0]LogConfig: Setting CVar [[r.MotionBlurQuality:4]]
[2022.09.13-08.31.13:573][  0]LogConfig: Setting CVar [[r.AmbientOcclusionMipLevelFactor:0.4]]
[2022.09.13-08.31.13:573][  0]LogConfig: Setting CVar [[r.AmbientOcclusionMaxQuality:100]]
[2022.09.13-08.31.13:573][  0]LogConfig: Setting CVar [[r.AmbientOcclusionLevels:-1]]
[2022.09.13-08.31.13:573][  0]LogConfig: Setting CVar [[r.AmbientOcclusionRadiusScale:1.0]]
[2022.09.13-08.31.13:573][  0]LogConfig: Setting CVar [[r.DepthOfFieldQuality:2]]
[2022.09.13-08.31.13:573][  0]LogConfig: Setting CVar [[r.RenderTargetPoolMin:400]]
[2022.09.13-08.31.13:574][  0]LogConfig: Setting CVar [[r.LensFlareQuality:2]]
[2022.09.13-08.31.13:574][  0]LogConfig: Setting CVar [[r.SceneColorFringeQuality:1]]
[2022.09.13-08.31.13:574][  0]LogConfig: Setting CVar [[r.EyeAdaptationQuality:2]]
[2022.09.13-08.31.13:574][  0]LogConfig: Setting CVar [[r.BloomQuality:5]]
[2022.09.13-08.31.13:574][  0]LogConfig: Setting CVar [[r.FastBlurThreshold:100]]
[2022.09.13-08.31.13:574][  0]LogConfig: Setting CVar [[r.Upscale.Quality:3]]
[2022.09.13-08.31.13:574][  0]LogConfig: Setting CVar [[r.Tonemapper.GrainQuantization:1]]
[2022.09.13-08.31.13:574][  0]LogConfig: Setting CVar [[r.LightShaftQuality:1]]
[2022.09.13-08.31.13:574][  0]LogConfig: Setting CVar [[r.Filter.SizeScale:1]]
[2022.09.13-08.31.13:574][  0]LogConfig: Setting CVar [[r.Tonemapper.Quality:5]]
[2022.09.13-08.31.13:574][  0]LogConfig: Setting CVar [[r.DOF.Gather.AccumulatorQuality:1        ; higher gathering accumulator quality]]
[2022.09.13-08.31.13:574][  0]LogConfig: Setting CVar [[r.DOF.Gather.PostfilterMethod:1          ; Median3x3 postfilering method]]
[2022.09.13-08.31.13:574][  0]LogConfig: Setting CVar [[r.DOF.Gather.EnableBokehSettings:0       ; no bokeh simulation when gathering]]
[2022.09.13-08.31.13:574][  0]LogConfig: Setting CVar [[r.DOF.Gather.RingCount:4                 ; medium number of samples when gathering]]
[2022.09.13-08.31.13:574][  0]LogConfig: Setting CVar [[r.DOF.Scatter.ForegroundCompositing:1    ; additive foreground scattering]]
[2022.09.13-08.31.13:574][  0]LogConfig: Setting CVar [[r.DOF.Scatter.BackgroundCompositing:2    ; additive background scattering]]
[2022.09.13-08.31.13:574][  0]LogConfig: Setting CVar [[r.DOF.Scatter.EnableBokehSettings:1      ; bokeh simulation when scattering]]
[2022.09.13-08.31.13:574][  0]LogConfig: Setting CVar [[r.DOF.Scatter.MaxSpriteRatio:0.1         ; only a maximum of 10% of scattered bokeh]]
[2022.09.13-08.31.13:574][  0]LogConfig: Setting CVar [[r.DOF.Recombine.Quality:1                ; cheap slight out of focus]]
[2022.09.13-08.31.13:574][  0]LogConfig: Setting CVar [[r.DOF.Recombine.EnableBokehSettings:0    ; no bokeh simulation on slight out of focus]]
[2022.09.13-08.31.13:574][  0]LogConfig: Setting CVar [[r.DOF.TemporalAAQuality:1                ; more stable temporal accumulation]]
[2022.09.13-08.31.13:574][  0]LogConfig: Setting CVar [[r.DOF.Kernel.MaxForegroundRadius:0.025]]
[2022.09.13-08.31.13:574][  0]LogConfig: Setting CVar [[r.DOF.Kernel.MaxBackgroundRadius:0.025]]
[2022.09.13-08.31.13:574][  0]LogConfig: Applying CVar settings from Section [TextureQuality@3] File [B:/SaveGit/PintBoll/Saved/Config/Windows/Scalability.ini]
[2022.09.13-08.31.13:574][  0]LogConfig: Setting CVar [[r.Streaming.MipBias:0]]
[2022.09.13-08.31.13:574][  0]LogConfig: Setting CVar [[r.Streaming.AmortizeCPUToGPUCopy:0]]
[2022.09.13-08.31.13:574][  0]LogConfig: Setting CVar [[r.Streaming.MaxNumTexturesToStreamPerFrame:0]]
[2022.09.13-08.31.13:574][  0]LogConfig: Setting CVar [[r.Streaming.Boost:1]]
[2022.09.13-08.31.13:574][  0]LogConfig: Setting CVar [[r.MaxAnisotropy:8]]
[2022.09.13-08.31.13:574][  0]LogConfig: Setting CVar [[r.Streaming.LimitPoolSizeToVRAM:0]]
[2022.09.13-08.31.13:574][  0]LogConfig: Setting CVar [[r.Streaming.PoolSize:1000]]
[2022.09.13-08.31.13:574][  0]LogConfig: Setting CVar [[r.Streaming.MaxEffectiveScreenSize:0]]
[2022.09.13-08.31.13:574][  0]LogConfig: Applying CVar settings from Section [EffectsQuality@3] File [B:/SaveGit/PintBoll/Saved/Config/Windows/Scalability.ini]
[2022.09.13-08.31.13:574][  0]LogConfig: Setting CVar [[r.TranslucencyLightingVolumeDim:64]]
[2022.09.13-08.31.13:574][  0]LogConfig: Setting CVar [[r.RefractionQuality:2]]
[2022.09.13-08.31.13:574][  0]LogConfig: Setting CVar [[r.SSR.Quality:3]]
[2022.09.13-08.31.13:574][  0]LogConfig: Setting CVar [[r.SceneColorFormat:4]]
[2022.09.13-08.31.13:574][  0]LogConfig: Setting CVar [[r.DetailMode:2]]
[2022.09.13-08.31.13:574][  0]LogConfig: Setting CVar [[r.TranslucencyVolumeBlur:1]]
[2022.09.13-08.31.13:574][  0]LogConfig: Setting CVar [[r.MaterialQualityLevel:1 ; High quality]]
[2022.09.13-08.31.13:574][  0]LogConfig: Setting CVar [[r.SSS.Scale:1]]
[2022.09.13-08.31.13:574][  0]LogConfig: Setting CVar [[r.SSS.SampleSet:2]]
[2022.09.13-08.31.13:574][  0]LogConfig: Setting CVar [[r.SSS.Quality:1]]
[2022.09.13-08.31.13:574][  0]LogConfig: Setting CVar [[r.SSS.HalfRes:1]]
[2022.09.13-08.31.13:574][  0]LogConfig: Setting CVar [[r.EmitterSpawnRateScale:1.0]]
[2022.09.13-08.31.13:574][  0]LogConfig: Setting CVar [[r.ParticleLightQuality:2]]
[2022.09.13-08.31.13:574][  0]LogConfig: Applying CVar settings from Section [FoliageQuality@3] File [B:/SaveGit/PintBoll/Saved/Config/Windows/Scalability.ini]
[2022.09.13-08.31.13:574][  0]LogConfig: Setting CVar [[foliage.DensityScale:1.0]]
[2022.09.13-08.31.13:574][  0]LogConfig: Setting CVar [[grass.DensityScale:1.0]]
[2022.09.13-08.31.13:574][  0]LogConfig: Applying CVar settings from Section [Startup] File [../../../Engine/Config/ConsoleVariables.ini]
[2022.09.13-08.31.13:574][  0]LogConfig: Setting CVar [[net.UseAdaptiveNetUpdateFrequency:0]]
[2022.09.13-08.31.13:574][  0]LogConfig: Setting CVar [[p.chaos.AllowCreatePhysxBodies:1]]
[2022.09.13-08.31.13:574][  0]LogConfig: Applying CVar settings from Section [ConsoleVariables] File [B:/SaveGit/PintBoll/Saved/Config/Windows/Engine.ini]
[2022.09.13-08.31.13:574][  0]LogInit: Computer: DESKTOP-0N76F3E
[2022.09.13-08.31.13:574][  0]LogInit: User: Sergey
[2022.09.13-08.31.13:574][  0]LogInit: CPU Page size=4096, Cores=12
[2022.09.13-08.31.13:574][  0]LogInit: High frequency timer resolution =10.000000 MHz
[2022.09.13-08.31.13:575][  0]LogMemory: Memory total: Physical=31.9GB (32GB approx)
[2022.09.13-08.31.13:575][  0]LogMemory: Platform Memory Stats for Windows
[2022.09.13-08.31.13:575][  0]LogMemory: Process Physical Memory: 101.77 MB used, 101.78 MB peak
[2022.09.13-08.31.13:575][  0]LogMemory: Process Virtual Memory: 93.52 MB used, 93.52 MB peak
[2022.09.13-08.31.13:575][  0]LogMemory: Physical Memory: 9506.13 MB used,  23164.32 MB free, 32670.45 MB total
[2022.09.13-08.31.13:575][  0]LogMemory: Virtual Memory: 4713.01 MB used,  134213016.00 MB free, 134217728.00 MB total
[2022.09.13-08.31.13:608][  0]LogInit: Using OS detected language (ru-RU).
[2022.09.13-08.31.13:608][  0]LogInit: Using OS detected locale (ru-RU).
[2022.09.13-08.31.13:608][  0]LogTextLocalizationManager: No specific localization for 'ru-RU' exists, so the 'ru' localization will be used.
[2022.09.13-08.31.13:609][  0]LogTextLocalizationResource: LocRes '../../../Engine/Content/Localization/Editor/ru/Editor.locres' could not be opened for reading!
[2022.09.13-08.31.13:609][  0]LogTextLocalizationResource: LocRes '../../../Engine/Content/Localization/EditorTutorials/ru/EditorTutorials.locres' could not be opened for reading!
[2022.09.13-08.31.13:609][  0]LogTextLocalizationResource: LocRes '../../../Engine/Content/Localization/Keywords/ru/Keywords.locres' could not be opened for reading!
[2022.09.13-08.31.13:609][  0]LogTextLocalizationResource: LocRes '../../../Engine/Content/Localization/Category/ru/Category.locres' could not be opened for reading!
[2022.09.13-08.31.13:609][  0]LogTextLocalizationResource: LocRes '../../../Engine/Content/Localization/ToolTips/ru/ToolTips.locres' could not be opened for reading!
[2022.09.13-08.31.13:609][  0]LogTextLocalizationResource: LocRes '../../../Engine/Content/Localization/PropertyNames/ru/PropertyNames.locres' could not be opened for reading!
[2022.09.13-08.31.13:609][  0]LogTextLocalizationResource: LocRes '../../../Engine/Content/Localization/Engine/ru/Engine.locres' could not be opened for reading!
[2022.09.13-08.31.13:610][  0]LogInit: Setting process to per monitor DPI aware
[2022.09.13-08.31.13:643][  0]LogSlate: New Slate User Created.  User Index 0, Is Virtual User: 0
[2022.09.13-08.31.13:643][  0]LogSlate: Slate User Registered.  User Index 0, Is Virtual User: 0
[2022.09.13-08.31.13:859][  0]LogHMD: Failed to initialize OpenVR with code 110
[2022.09.13-08.31.13:859][  0]LogD3D11RHI: D3D11 adapters:
[2022.09.13-08.31.13:973][  0]LogD3D11RHI:    0. 'NVIDIA GeForce RTX 3060 Ti' (Feature Level 11_0)
[2022.09.13-08.31.13:973][  0]LogD3D11RHI:       8050/0/16335 MB DedicatedVideo/DedicatedSystem/SharedSystem, Outputs:1, VendorId:0x10de
[2022.09.13-08.31.13:977][  0]LogD3D11RHI:    1. 'Microsoft Basic Render Driver' (Feature Level 11_0)
[2022.09.13-08.31.13:977][  0]LogD3D11RHI:       0/0/16335 MB DedicatedVideo/DedicatedSystem/SharedSystem, Outputs:0, VendorId:0x1414
[2022.09.13-08.31.13:977][  0]LogD3D11RHI: Chosen D3D11 Adapter: 0
[2022.09.13-08.31.13:988][  0]LogD3D11RHI: Creating new Direct3DDevice
[2022.09.13-08.31.13:988][  0]LogD3D11RHI:     GPU DeviceId: 0x2486 (for the marketing name, search the web for "GPU Device Id")
[2022.09.13-08.31.13:988][  0]LogWindows: EnumDisplayDevices:
[2022.09.13-08.31.13:988][  0]LogWindows:    0. 'NVIDIA GeForce RTX 3060 Ti' (P:1 D:1)
[2022.09.13-08.31.13:989][  0]LogWindows:    1. 'NVIDIA GeForce RTX 3060 Ti' (P:0 D:0)
[2022.09.13-08.31.13:989][  0]LogWindows:    2. 'NVIDIA GeForce RTX 3060 Ti' (P:0 D:0)
[2022.09.13-08.31.13:990][  0]LogWindows:    3. 'NVIDIA GeForce RTX 3060 Ti' (P:0 D:0)
[2022.09.13-08.31.13:990][  0]LogWindows: DebugString: FoundDriverCount:4 
[2022.09.13-08.31.13:990][  0]LogD3D11RHI:     Adapter Name: NVIDIA GeForce RTX 3060 Ti
[2022.09.13-08.31.13:990][  0]LogD3D11RHI:   Driver Version: 516.94 (internal:31.0.15.1694, unified:516.94)
[2022.09.13-08.31.13:990][  0]LogD3D11RHI:      Driver Date: 7-21-2022
[2022.09.13-08.31.13:990][  0]LogRHI: Texture pool is 5635 MB (70% of 8050 MB)
[2022.09.13-08.31.14:076][  0]LogD3D11RHI: Async texture creation enabled
[2022.09.13-08.31.14:084][  0]LogRendererCore: FGlobalReadBuffer::InitRHI
[2022.09.13-08.31.14:085][  0]LogRendererCore: FGlobalReadBuffer::InitRHI
[2022.09.13-08.31.14:085][  0]LogRendererCore: FGlobalReadBuffer::InitRHI
[2022.09.13-08.31.14:093][  0]LogD3D11RHI: GPU Timing Frequency: 1000.000000 (Debug: 2 1)
[2022.09.13-08.31.14:500][  0]LogTemp: Display: Module 'AllDesktopTargetPlatform' loaded TargetPlatform 'AllDesktop'
[2022.09.13-08.31.14:520][  0]LogTemp: Display: Module 'MacClientTargetPlatform' loaded TargetPlatform 'MacClient'
[2022.09.13-08.31.14:536][  0]LogTemp: Display: Module 'MacNoEditorTargetPlatform' loaded TargetPlatform 'MacNoEditor'
[2022.09.13-08.31.14:553][  0]LogTemp: Display: Module 'MacServerTargetPlatform' loaded TargetPlatform 'MacServer'
[2022.09.13-08.31.14:569][  0]LogTemp: Display: Module 'MacTargetPlatform' loaded TargetPlatform 'Mac'
[2022.09.13-08.31.14:585][  0]LogTemp: Display: Module 'WindowsClientTargetPlatform' loaded TargetPlatform 'WindowsClient'
[2022.09.13-08.31.14:602][  0]LogTemp: Display: Module 'WindowsNoEditorTargetPlatform' loaded TargetPlatform 'WindowsNoEditor'
[2022.09.13-08.31.14:618][  0]LogTemp: Display: Module 'WindowsServerTargetPlatform' loaded TargetPlatform 'WindowsServer'
[2022.09.13-08.31.14:625][  0]LogTemp: Display: Module 'WindowsTargetPlatform' loaded TargetPlatform 'Windows'
[2022.09.13-08.31.14:726][  0]LogTemp: Display: Module 'AndroidTargetPlatform' loaded TargetPlatform 'Android'
[2022.09.13-08.31.14:726][  0]LogTemp: Display: Module 'AndroidTargetPlatform' loaded TargetPlatform 'Android_ASTC'
[2022.09.13-08.31.14:726][  0]LogTemp: Display: Module 'AndroidTargetPlatform' loaded TargetPlatform 'Android_ATC'
[2022.09.13-08.31.14:726][  0]LogTemp: Display: Module 'AndroidTargetPlatform' loaded TargetPlatform 'Android_DXT'
[2022.09.13-08.31.14:726][  0]LogTemp: Display: Module 'AndroidTargetPlatform' loaded TargetPlatform 'Android_ETC1'
[2022.09.13-08.31.14:726][  0]LogTemp: Display: Module 'AndroidTargetPlatform' loaded TargetPlatform 'Android_ETC1a'
[2022.09.13-08.31.14:726][  0]LogTemp: Display: Module 'AndroidTargetPlatform' loaded TargetPlatform 'Android_ETC2'
[2022.09.13-08.31.14:726][  0]LogTemp: Display: Module 'AndroidTargetPlatform' loaded TargetPlatform 'Android_PVRTC'
[2022.09.13-08.31.14:726][  0]LogTemp: Display: Module 'AndroidTargetPlatform' loaded TargetPlatform 'AndroidClient'
[2022.09.13-08.31.14:726][  0]LogTemp: Display: Module 'AndroidTargetPlatform' loaded TargetPlatform 'Android_ASTCClient'
[2022.09.13-08.31.14:726][  0]LogTemp: Display: Module 'AndroidTargetPlatform' loaded TargetPlatform 'Android_ATCClient'
[2022.09.13-08.31.14:726][  0]LogTemp: Display: Module 'AndroidTargetPlatform' loaded TargetPlatform 'Android_DXTClient'
[2022.09.13-08.31.14:726][  0]LogTemp: Display: Module 'AndroidTargetPlatform' loaded TargetPlatform 'Android_ETC1Client'
[2022.09.13-08.31.14:726][  0]LogTemp: Display: Module 'AndroidTargetPlatform' loaded TargetPlatform 'Android_ETC1aClient'
[2022.09.13-08.31.14:726][  0]LogTemp: Display: Module 'AndroidTargetPlatform' loaded TargetPlatform 'Android_ETC2Client'
[2022.09.13-08.31.14:726][  0]LogTemp: Display: Module 'AndroidTargetPlatform' loaded TargetPlatform 'Android_PVRTCClient'
[2022.09.13-08.31.14:726][  0]LogTemp: Display: Module 'AndroidTargetPlatform' loaded TargetPlatform 'Android_Multi'
[2022.09.13-08.31.14:726][  0]LogTemp: Display: Module 'AndroidTargetPlatform' loaded TargetPlatform 'Android_MultiClient'
[2022.09.13-08.31.14:728][  0]LogTemp: Display: Module 'HTML5TargetPlatform' loaded TargetPlatform 'HTML5'
[2022.09.13-08.31.14:779][  0]LogTemp: Display: Module 'IOSTargetPlatform' loaded TargetPlatform 'IOSClient'
[2022.09.13-08.31.14:779][  0]LogTemp: Display: Module 'IOSTargetPlatform' loaded TargetPlatform 'IOS'
[2022.09.13-08.31.14:805][  0]LogTemp: Display: Module 'TVOSTargetPlatform' loaded TargetPlatform 'TVOSClient'
[2022.09.13-08.31.14:805][  0]LogTemp: Display: Module 'TVOSTargetPlatform' loaded TargetPlatform 'TVOS'
[2022.09.13-08.31.14:820][  0]LogTemp: Display: Module 'LinuxClientTargetPlatform' loaded TargetPlatform 'LinuxClient'
[2022.09.13-08.31.14:836][  0]LogTemp: Display: Module 'LinuxNoEditorTargetPlatform' loaded TargetPlatform 'LinuxNoEditor'
[2022.09.13-08.31.14:852][  0]LogTemp: Display: Module 'LinuxServerTargetPlatform' loaded TargetPlatform 'LinuxServer'
[2022.09.13-08.31.14:869][  0]LogTemp: Display: Module 'LinuxTargetPlatform' loaded TargetPlatform 'Linux'
[2022.09.13-08.31.14:926][  0]LogTemp: Display: Module 'LuminTargetPlatform' loaded TargetPlatform 'Lumin'
[2022.09.13-08.31.14:926][  0]LogTemp: Display: Module 'LuminTargetPlatform' loaded TargetPlatform 'LuminClient'
[2022.09.13-08.31.14:926][  0]LogTargetPlatformManager: Display: Building Assets For Windows
[2022.09.13-08.31.14:933][  0]LogAudioDebug: Display: Lib vorbis DLL was dynamically loaded.
[2022.09.13-08.31.14:969][  0]LogShaderCompilers: Guid format shader working directory is 12 characters bigger than the processId version (../../../../../../SaveGit/PintBoll/Intermediate/Shaders/WorkingDirectory/16248/).
[2022.09.13-08.31.14:969][  0]LogShaderCompilers: Cleaned the shader compiler working directory 'C:/Users/Sergey/AppData/Local/Temp/UnrealShaderWorkingDir/E6C97358475194F33A143A9E196B2DA7/'.
[2022.09.13-08.31.14:970][  0]LogXGEController: Cannot use XGE Controller as Incredibuild is not installed on this machine.
[2022.09.13-08.31.14:970][  0]LogShaderCompilers: Cannot use XGE Shader Compiler as Incredibuild is not installed on this machine.
[2022.09.13-08.31.14:970][  0]LogShaderCompilers: Display: Using Local Shader Compiler.
[2022.09.13-08.31.15:708][  0]LogDerivedDataCache: Display: Max Cache Size: 512 MB
[2022.09.13-08.31.15:765][  0]LogDerivedDataCache: Loaded boot cache 0.06s 71MB C:/Users/Sergey/AppData/Local/UnrealEngine/4.22/DerivedDataCache/Boot.ddc.
[2022.09.13-08.31.15:765][  0]LogDerivedDataCache: Display: Loaded Boot cache: C:/Users/Sergey/AppData/Local/UnrealEngine/4.22/DerivedDataCache/Boot.ddc
[2022.09.13-08.31.15:765][  0]LogDerivedDataCache: FDerivedDataBackendGraph:  Pak pak cache file ../../../../../../SaveGit/PintBoll/DerivedDataCache/DDC.ddp not found, will not use a pak cache.
[2022.09.13-08.31.15:766][  0]LogDerivedDataCache: Unable to find inner node Pak for hierarchical cache Hierarchy.
[2022.09.13-08.31.15:766][  0]LogDerivedDataCache: FDerivedDataBackendGraph:  CompressedPak pak cache file ../../../../../../SaveGit/PintBoll/DerivedDataCache/Compressed.ddp not found, will not use a pak cache.
[2022.09.13-08.31.15:766][  0]LogDerivedDataCache: Unable to find inner node CompressedPak for hierarchical cache Hierarchy.
[2022.09.13-08.31.15:782][  0]LogDerivedDataCache: Display: Pak cache opened for reading ../../../Engine/DerivedDataCache/Compressed.ddp.
[2022.09.13-08.31.15:782][  0]LogDerivedDataCache: FDerivedDataBackendGraph:  EnterprisePak pak cache file ../../../Enterprise/DerivedDataCache/Compressed.ddp not found, will not use a pak cache.
[2022.09.13-08.31.15:783][  0]LogDerivedDataCache: Unable to find inner node EnterprisePak for hierarchical cache Hierarchy.
[2022.09.13-08.31.15:795][  0]LogDerivedDataCache: Using Local data cache path C:/Users/Sergey/AppData/Local/UnrealEngine/Common/DerivedDataCache: Writable
[2022.09.13-08.31.15:795][  0]LogDerivedDataCache: Shared data cache path not found in *engine.ini, will not use an Shared cache.
[2022.09.13-08.31.15:795][  0]LogDerivedDataCache: Unable to find inner node Shared for hierarchical cache Hierarchy.
[2022.09.13-08.31.15:820][  0]LogMaterial: Verifying Global Shaders for PCD3D_SM5
[2022.09.13-08.31.15:821][  0]LogSlate: Using FreeType 2.6.0
[2022.09.13-08.31.15:822][  0]LogSlate: SlateFontServices - WITH_FREETYPE: 1, WITH_HARFBUZZ: 1
[2022.09.13-08.31.15:912][  0]LogAssetRegistry: FAssetRegistry took 0.0356 seconds to start up
[2022.09.13-08.31.16:294][  0]LogInit: Selected Device Profile: [Windows]
[2022.09.13-08.31.16:347][  0]LogMeshReduction: Using QuadricMeshReduction for automatic static mesh reduction
[2022.09.13-08.31.16:347][  0]LogMeshReduction: Using SimplygonMeshReduction for automatic skeletal mesh reduction
[2022.09.13-08.31.16:347][  0]LogMeshReduction: Using ProxyLODMeshReduction for automatic mesh merging
[2022.09.13-08.31.16:347][  0]LogMeshReduction: No distributed automatic mesh merging module available
[2022.09.13-08.31.16:347][  0]LogMeshMerging: No distributed automatic mesh merging module available
[2022.09.13-08.31.16:465][  0]LogNetVersion: PintBoll 1.0.0, NetCL: 5660361, EngineNetVer: 10, GameNetVer: 0 (Checksum: 4094627363)
[2022.09.13-08.31.16:946][  0]LogPackageLocalizationCache: Processed 10 localized package path(s) for 1 prioritized culture(s) in 0.034826 seconds
[2022.09.13-08.31.16:952][  0]LogUObjectArray: 42205 objects as part of root set at end of initial load.
[2022.09.13-08.31.16:952][  0]LogUObjectAllocator: 7325032 out of 0 bytes used by permanent object pool.
[2022.09.13-08.31.16:952][  0]LogUObjectArray: CloseDisregardForGC: 0/0 objects in disregard for GC pool
[2022.09.13-08.31.17:810][  0]LogTcpMessaging: Initializing TcpMessaging bridge
[2022.09.13-08.31.17:823][  0]LogUdpMessaging: Initializing bridge on interface 0.0.0.0:0 to multicast group 230.0.0.1:6666.
[2022.09.13-08.31.17:941][  0]SourceControl: Source control is disabled
[2022.09.13-08.31.19:000][  0]LogAndroidPermission: UAndroidPermissionCallbackProxy::GetInstance
[2022.09.13-08.31.19:074][  0]LogOcInput: OculusInput pre-init called
[2022.09.13-08.31.19:869][  0]LogEngine: Initializing Engine...
[2022.09.13-08.31.19:869][  0]LogHMD: Failed to initialize OpenVR with code 110
[2022.09.13-08.31.19:871][  0]LogStats: UGameplayTagsManager::InitializeManager -  0.000 s
[2022.09.13-08.31.20:177][  0]LogInit: Initializing FReadOnlyCVARCache
[2022.09.13-08.31.20:186][  0]LogAIModule: Creating AISystem for world Untitled
[2022.09.13-08.31.20:202][  0]LogInit: XAudio2 using 'Динамики (High Definition Audio Device)' : 2 channels at 48 kHz using 16 bits per sample (channel mask 0x3)
[2022.09.13-08.31.20:228][  0]LogInit: FAudioDevice initialized.
[2022.09.13-08.31.20:228][  0]LogNetVersion: Set ProjectVersion to 1.0.0.0. Version Checksum will be recalculated on next use.
[2022.09.13-08.31.20:317][  0]LogDerivedDataCache: Saved boot cache 0.09s 71MB C:/Users/Sergey/AppData/Local/UnrealEngine/4.22/DerivedDataCache/Boot.ddc.
[2022.09.13-08.31.20:324][  0]LogInit: Texture streaming: Enabled
[2022.09.13-08.31.20:338][  0]LogEngineSessionManager: EngineSessionManager initialized
[2022.09.13-08.31.20:394][  0]LogInit: Transaction tracking system initialized
[2022.09.13-08.31.20:410][  0]BlueprintLog: New page: Editor Load
[2022.09.13-08.31.20:468][  0]LocalizationService: Localization service is disabled
[2022.09.13-08.31.20:825][  0]LogFileCache: Scanning file cache for directory 'B:/SaveGit/PintBoll/Content/' took 0.01s
[2022.09.13-08.31.20:825][  0]LogCook: Display: Max memory allowance for cook 16384mb min free memory 0mb
[2022.09.13-08.31.20:825][  0]LogCook: Display: Mobile HDR setting 1
[2022.09.13-08.31.21:010][  0]Cmd: MAP LOAD FILE="../../../Engine/Content/Maps/Templates/Template_Default.umap" TEMPLATE=1 SHOWPROGRESS=1 FEATURELEVEL=3
[2022.09.13-08.31.21:010][  0]LightingResults: New page: Lighting Build
[2022.09.13-08.31.21:012][  0]MapCheck: New page: Map Check
[2022.09.13-08.31.21:012][  0]LightingResults: New page: Lighting Build
[2022.09.13-08.31.21:079][  0]LogUObjectHash: Compacting FUObjectHashTables data took   2.36ms
[2022.09.13-08.31.21:193][  0]LogAIModule: Creating AISystem for world Untitled_1
[2022.09.13-08.31.21:199][  0]LogEditorServer: Finished looking for orphan Actors (0.000 secs)
[2022.09.13-08.31.21:253][  0]LogUObjectHash: Compacting FUObjectHashTables data took   2.41ms
[2022.09.13-08.31.21:253][  0]Cmd: MAP CHECKDEP NOCLEARLOG
[2022.09.13-08.31.21:254][  0]MapCheck: Map check complete: 0 Error(s), 0 Warning(s), took 0,139ms to complete.
[2022.09.13-08.31.21:254][  0]LogFileHelpers: Loading map 'Template_Default' took 0.244
[2022.09.13-08.31.22:139][  0]LogSlate: Updating window title bar state: overlay mode, drag disabled, window buttons hidden, title bar hidden
[2022.09.13-08.31.22:158][  0]LogSlate: Updating window title bar state: overlay mode, drag disabled, window buttons hidden, title bar hidden
[2022.09.13-08.31.22:167][  0]LogSlate: Updating window title bar state: overlay mode, drag disabled, window buttons hidden, title bar hidden
[2022.09.13-08.31.22:179][  0]LogSlate: Updating window title bar state: overlay mode, drag disabled, window buttons hidden, title bar hidden
[2022.09.13-08.31.22:259][  0]LogCollectionManager: Loaded 0 collections in 0.000949 seconds
[2022.09.13-08.31.22:377][  0]LogFileCache: Scanning file cache for directory 'B:/SaveGit/PintBoll/Saved/Collections/' took 0.01s
[2022.09.13-08.31.22:377][  0]LogFileCache: Scanning file cache for directory 'B:/SaveGit/PintBoll/Content/Developers/Sergey/Collections/' took 0.01s
[2022.09.13-08.31.22:377][  0]LogFileCache: Scanning file cache for directory 'B:/SaveGit/PintBoll/Content/Collections/' took 0.01s
[2022.09.13-08.31.22:377][  0]LogCollectionManager: Rebuilt the GUID cache for 0 collections in 0.000000 seconds
[2022.09.13-08.31.22:388][  0]LogContentBrowser: Native class hierarchy populated in 0.0104 seconds. Added 2732 classes and 659 folders.
[2022.09.13-08.31.22:471][  0]LogContentBrowser: Native class hierarchy updated for 'WidgetCarousel' in 0.0003 seconds. Added 0 classes and 0 folders.
[2022.09.13-08.31.22:572][  0]LogPakFile: Registered encryption key '00000000000000000000000000000000': 0 pak files mounted, 0 remain pending
[2022.09.13-08.31.22:607][  0]LogPakFile: Registered encryption key '00000000000000000000000000000000': 0 pak files mounted, 0 remain pending
[2022.09.13-08.31.22:615][  0]LogPakFile: Registered encryption key '00000000000000000000000000000000': 0 pak files mounted, 0 remain pending
[2022.09.13-08.31.22:631][  0]LogPakFile: Registered encryption key '00000000000000000000000000000000': 0 pak files mounted, 0 remain pending
[2022.09.13-08.31.22:633][  0]LogPakFile: Registered encryption key '00000000000000000000000000000000': 0 pak files mounted, 0 remain pending
[2022.09.13-08.31.22:663][  0]LogPakFile: Registered encryption key '00000000000000000000000000000000': 0 pak files mounted, 0 remain pending
[2022.09.13-08.31.22:678][  0]LogPakFile: Registered encryption key '00000000000000000000000000000000': 0 pak files mounted, 0 remain pending
[2022.09.13-08.31.22:689][  0]LogPakFile: Registered encryption key '00000000000000000000000000000000': 0 pak files mounted, 0 remain pending
[2022.09.13-08.31.22:701][  0]LogPakFile: Registered encryption key '00000000000000000000000000000000': 0 pak files mounted, 0 remain pending
[2022.09.13-08.31.22:713][  0]LogPakFile: Registered encryption key '00000000000000000000000000000000': 0 pak files mounted, 0 remain pending
[2022.09.13-08.31.22:731][  0]LogPakFile: Registered encryption key '00000000000000000000000000000000': 0 pak files mounted, 0 remain pending
[2022.09.13-08.31.22:735][  0]LogPakFile: Registered encryption key '00000000000000000000000000000000': 0 pak files mounted, 0 remain pending
[2022.09.13-08.31.22:748][  0]LogPakFile: Registered encryption key '00000000000000000000000000000000': 0 pak files mounted, 0 remain pending
[2022.09.13-08.31.22:749][  0]LogPakFile: Registered encryption key '00000000000000000000000000000000': 0 pak files mounted, 0 remain pending
[2022.09.13-08.31.22:763][  0]LogPakFile: Registered encryption key '00000000000000000000000000000000': 0 pak files mounted, 0 remain pending
[2022.09.13-08.31.22:765][  0]LogPakFile: Registered encryption key '00000000000000000000000000000000': 0 pak files mounted, 0 remain pending
[2022.09.13-08.31.22:766][  0]LogPakFile: Registered encryption key '00000000000000000000000000000000': 0 pak files mounted, 0 remain pending
[2022.09.13-08.31.22:778][  0]LogPakFile: Registered encryption key '00000000000000000000000000000000': 0 pak files mounted, 0 remain pending
[2022.09.13-08.31.22:786][  0]LogPakFile: Registered encryption key '00000000000000000000000000000000': 0 pak files mounted, 0 remain pending
[2022.09.13-08.31.22:788][  0]LogPakFile: Registered encryption key '00000000000000000000000000000000': 0 pak files mounted, 0 remain pending
[2022.09.13-08.31.22:789][  0]LogPakFile: Registered encryption key '00000000000000000000000000000000': 0 pak files mounted, 0 remain pending
[2022.09.13-08.31.22:791][  0]LogPakFile: Registered encryption key '00000000000000000000000000000000': 0 pak files mounted, 0 remain pending
[2022.09.13-08.31.22:793][  0]LogPakFile: Registered encryption key '00000000000000000000000000000000': 0 pak files mounted, 0 remain pending
[2022.09.13-08.31.22:808][  0]LogPakFile: Registered encryption key '00000000000000000000000000000000': 0 pak files mounted, 0 remain pending
[2022.09.13-08.31.22:809][  0]LogPakFile: Registered encryption key '00000000000000000000000000000000': 0 pak files mounted, 0 remain pending
[2022.09.13-08.31.22:818][  0]LogPakFile: Registered encryption key '00000000000000000000000000000000': 0 pak files mounted, 0 remain pending
[2022.09.13-08.31.23:437][  0]LogContentBrowser: Native class hierarchy updated for 'AddContentDialog' in 0.0003 seconds. Added 0 classes and 0 folders.
[2022.09.13-08.31.23:473][  0]LogContentBrowser: Native class hierarchy updated for 'SceneOutliner' in 0.0006 seconds. Added 1 classes and 2 folders.
[2022.09.13-08.31.24:103][  0]LogSlate: Took 0.000199 seconds to synchronously load lazily loaded font '../../../Engine/Content/Slate/Fonts/Roboto-Regular.ttf' (155K)
[2022.09.13-08.31.24:107][  0]LogSlate: Took 0.000257 seconds to synchronously load lazily loaded font '../../../Engine/Content/Slate/Fonts/Roboto-Bold.ttf' (160K)
[2022.09.13-08.31.24:170][  0]LogSlate: Took 0.011466 seconds to synchronously load lazily loaded font '../../../Engine/Content/Editor/Slate/Fonts/FontAwesome.ttf' (139K)
[2022.09.13-08.31.24:518][  0]LogRenderer: Reallocating scene render targets to support 1208x572 Format 10 NumSamples 1 (Frame:1).
[2022.09.13-08.31.24:771][  0]LogContentBrowser: Native class hierarchy updated for 'HierarchicalLODOutliner' in 0.0003 seconds. Added 0 classes and 0 folders.
[2022.09.13-08.31.24:771][  0]LogLoad: (Engine Initialization) Total time: 14.68 seconds
[2022.09.13-08.31.24:772][  0]LogLoad: (Engine Initialization) Total Blueprint compile time: 0.00 seconds
[2022.09.13-08.31.24:806][  0]LogAssetRegistry: Asset discovery search completed in 8.9169 seconds
[2022.09.13-08.31.24:809][  0]LogCollectionManager: Rebuilt the object cache for 0 collections in 0.000000 seconds (found 0 objects)
[2022.09.13-08.31.24:809][  0]LogCollectionManager: Fixed up redirectors for 0 collections in 0.000054 seconds (updated 0 objects)
[2022.09.13-08.31.24:841][  0]LogContentStreaming: Texture pool size now 1000 MB
[2022.09.13-08.31.24:990][  0]LogSlate: Took 0.012754 seconds to synchronously load lazily loaded font '../../../Engine/Content/Slate/Fonts/Roboto-Light.ttf' (167K)
[2022.09.13-08.31.25:792][ 82]LogSlate: Took 0.000228 seconds to synchronously load lazily loaded font '../../../Engine/Content/Slate/Fonts/Roboto-Light.ttf' (167K)
[2022.09.13-08.31.27:396][264]LogSlate: FSceneViewport::OnFocusLost() reason 0
[2022.09.13-08.31.27:727][281]LogAIModule: Creating AISystem for world NewMap1
[2022.09.13-08.31.27:741][281]LogAssetEditorManager: Opening Asset editor for World /Game/NewMap1.NewMap1
[2022.09.13-08.31.27:807][281]LogUObjectHash: Compacting FUObjectHashTables data took   2.52ms
[2022.09.13-08.31.27:809][281]Cmd: MAP LOAD FILE="../../../../../../SaveGit/PintBoll/Content/NewMap1.umap" TEMPLATE=0 SHOWPROGRESS=1 FEATURELEVEL=3
[2022.09.13-08.31.27:809][281]LightingResults: New page: Lighting Build
[2022.09.13-08.31.27:809][281]LoadErrors: New page: Loading map: NewMap1.umap
[2022.09.13-08.31.27:810][281]MapCheck: New page: Map Check
[2022.09.13-08.31.27:810][281]LightingResults: New page: Lighting Build
[2022.09.13-08.31.27:863][281]LogUObjectHash: Compacting FUObjectHashTables data took   2.41ms
[2022.09.13-08.31.28:061][281]LogEditorServer: Finished looking for orphan Actors (0.000 secs)
[2022.09.13-08.31.28:122][281]LogUObjectHash: Compacting FUObjectHashTables data took   1.85ms
[2022.09.13-08.31.28:136][281]Cmd: MAP CHECKDEP NOCLEARLOG
[2022.09.13-08.31.28:136][281]MapCheck: Map check complete: 0 Error(s), 0 Warning(s), took 0,088ms to complete.
[2022.09.13-08.31.28:136][281]LogFileHelpers: Loading map 'NewMap1' took 0.328
[2022.09.13-08.31.37:166][317]LogSlate: FSceneViewport::OnFocusLost() reason 0
[2022.09.13-08.31.37:243][325]LogAssetEditorManager: Opening Asset editor for Blueprint /Game/NewBlueprint.NewBlueprint
[2022.09.13-08.31.37:943][325]LogContentBrowser: Native class hierarchy updated for 'BlueprintGraph' in 0.0007 seconds. Added 121 classes and 0 folders.
[2022.09.13-08.31.39:519][325]LogSlate: Took 0.024486 seconds to synchronously load lazily loaded font '../../../Engine/Content/Slate/Fonts/Roboto-BoldCondensed.ttf' (158K)
[2022.09.13-08.31.39:834][326]LogSlate: Took 0.017991 seconds to synchronously load lazily loaded font '../../../Engine/Content/Slate/Fonts/Roboto-Italic.ttf' (157K)
[2022.09.13-08.41.27:735][372]LogUObjectHash: Compacting FUObjectHashTables data took   4.45ms
[2022.09.13-08.41.27:735][372]LogFileHelpers: Editor autosave (incl. sublevels) for '/Game/NewMap1' took 0.054
[2022.09.13-08.41.27:737][372]OBJ SavePackage: Generating thumbnails for [1] asset(s) in package [/Game/NewBlueprint] ([1] browsable assets)...
[2022.09.13-08.41.27:773][372]OBJ SavePackage:     Rendered thumbnail for [Blueprint /Game/NewBlueprint.NewBlueprint]
[2022.09.13-08.41.27:773][372]OBJ SavePackage: Finished generating thumbnails for package [/Game/NewBlueprint]
[2022.09.13-08.41.27:773][372]Cmd: OBJ SAVEPACKAGE PACKAGE="/Game/NewBlueprint" FILE="../../../../../../SaveGit/PintBoll/Saved/Autosaves/Game/NewBlueprint_Auto1.uasset" SILENT=false AUTOSAVING=true
[2022.09.13-08.41.27:967][372]LogSavePackage: Moving '../../../../../../SaveGit/PintBoll/Saved/NewBlueprint_Auto1820BC2454030512D729D41A2676D8D23.tmp' to '../../../../../../SaveGit/PintBoll/Saved/Autosaves/Game/NewBlueprint_Auto1.uasset'
[2022.09.13-08.41.27:969][372]LogFileHelpers: Auto-saving content packages took 0.234
[2022.09.13-08.51.58:289][254]LogWindowsTextInputMethodSystem: Display: IME system now deactivated.
[2022.09.13-08.51.58:289][254]LogWindowsTextInputMethodSystem: Display: IME system now deactivated.
[2022.09.13-08.52.34:210][183]LogWindowsTextInputMethodSystem: Display: IME system now deactivated.
[2022.09.13-08.52.34:210][183]LogWindowsTextInputMethodSystem: Display: IME system now deactivated.
[2022.09.13-08.53.09:662][954]LogUObjectHash: Compacting FUObjectHashTables data took   2.52ms
[2022.09.13-08.53.09:662][954]LogFileHelpers: Editor autosave (incl. sublevels) for '/Game/NewMap1' took 0.054
[2022.09.13-08.53.09:663][954]OBJ SavePackage: Generating thumbnails for [1] asset(s) in package [/Game/NewBlueprint] ([1] browsable assets)...
[2022.09.13-08.53.09:680][954]OBJ SavePackage:     Rendered thumbnail for [Blueprint /Game/NewBlueprint.NewBlueprint]
[2022.09.13-08.53.09:680][954]OBJ SavePackage: Finished generating thumbnails for package [/Game/NewBlueprint]
[2022.09.13-08.53.09:680][954]Cmd: OBJ SAVEPACKAGE PACKAGE="/Game/NewBlueprint" FILE="../../../../../../SaveGit/PintBoll/Saved/Autosaves/Game/NewBlueprint_Auto2.uasset" SILENT=false AUTOSAVING=true
[2022.09.13-08.53.09:709][954]LogSavePackage: Moving '../../../../../../SaveGit/PintBoll/Saved/NewBlueprint_Auto248EE2DE145BAF7C231AAF4811D6FC899.tmp' to '../../../../../../SaveGit/PintBoll/Saved/Autosaves/Game/NewBlueprint_Auto2.uasset'
[2022.09.13-08.53.09:710][954]LogFileHelpers: Auto-saving content packages took 0.047
[2022.09.13-08.57.44:702][773]LogWindowsTextInputMethodSystem: Display: IME system now deactivated.
[2022.09.13-08.57.44:702][773]LogWindowsTextInputMethodSystem: Display: IME system now deactivated.
[2022.09.13-09.04.48:704][608]LogWindowsTextInputMethodSystem: Display: IME system now deactivated.
[2022.09.13-09.04.48:705][608]LogWindowsTextInputMethodSystem: Display: IME system now deactivated.
[2022.09.13-09.06.59:553][951]BlueprintLog: New page: Compile NewBlueprint
[2022.09.13-09.07.00:155][951]LogUObjectHash: Compacting FUObjectHashTables data took   3.76ms
[2022.09.13-09.08.20:463][680]BlueprintLog: New page: Compile NewBlueprint
[2022.09.13-09.08.20:728][680]LogUObjectHash: Compacting FUObjectHashTables data took   4.15ms
[2022.09.13-09.09.15:625][716]LogUObjectHash: Compacting FUObjectHashTables data took   3.40ms
[2022.09.13-09.09.15:626][716]Cmd: OBJ SAVEPACKAGE PACKAGE="/Game/NewMap1" FILE="../../../../../../SaveGit/PintBoll/Saved/Autosaves/Game/NewMap1_Auto3.umap" SILENT=true AUTOSAVING=true KEEPDIRTY=false
[2022.09.13-09.09.15:838][716]LogSavePackage: Moving '../../../../../../SaveGit/PintBoll/Saved/NewMap1_Auto39EFA37D94F9C5B9226E6E49DA992D258.tmp' to '../../../../../../SaveGit/PintBoll/Saved/Autosaves/Game/NewMap1_Auto3.umap'
[2022.09.13-09.09.15:842][716]LogFileHelpers: Editor autosave (incl. sublevels) for '/Game/NewMap1' took 0.272
[2022.09.13-09.09.15:842][716]LogFileHelpers: Editor autosave (incl. sublevels) for all levels took 0.272
[2022.09.13-09.09.15:844][716]OBJ SavePackage: Generating thumbnails for [1] asset(s) in package [/Game/NewBlueprint] ([1] browsable assets)...
[2022.09.13-09.09.15:871][716]OBJ SavePackage:     Rendered thumbnail for [Blueprint /Game/NewBlueprint.NewBlueprint]
[2022.09.13-09.09.15:871][716]OBJ SavePackage: Finished generating thumbnails for package [/Game/NewBlueprint]
[2022.09.13-09.09.15:871][716]Cmd: OBJ SAVEPACKAGE PACKAGE="/Game/NewBlueprint" FILE="../../../../../../SaveGit/PintBoll/Saved/Autosaves/Game/NewBlueprint_Auto3.uasset" SILENT=false AUTOSAVING=true
[2022.09.13-09.09.15:924][716]LogSavePackage: Moving '../../../../../../SaveGit/PintBoll/Saved/NewBlueprint_Auto3F5A424CE417B84532B6150B299D5C5EF.tmp' to '../../../../../../SaveGit/PintBoll/Saved/Autosaves/Game/NewBlueprint_Auto3.uasset'
[2022.09.13-09.09.15:925][716]LogFileHelpers: Auto-saving content packages took 0.082
[2022.09.13-09.09.30:999][367]BlueprintLog: New page: Compile NewBlueprint
[2022.09.13-09.09.31:223][367]LogUObjectHash: Compacting FUObjectHashTables data took   3.51ms
[2022.09.13-09.09.33:685][633]LogTemp: Repeating last play command: Selected Viewport
[2022.09.13-09.09.33:713][633]LogBlueprintUserMessages: Early PlayInEditor Detection: Level '/Game/NewMap1.NewMap1:PersistentLevel' has LevelScriptBlueprint '/Game/NewMap1.NewMap1:PersistentLevel.NewMap1' with GeneratedClass '/Game/NewMap1.NewMap1_C' with ClassGeneratedBy '/Game/NewMap1.NewMap1:PersistentLevel.NewMap1'
[2022.09.13-09.09.33:731][633]LogPlayLevel: PlayLevel: No blueprints needed recompiling
[2022.09.13-09.09.33:747][633]PIE: New page: PIE session: NewMap1 (13 сент. 2022 г., 15:09:33)
[2022.09.13-09.09.33:797][633]LogPlayLevel: Creating play world package: /Game/UEDPIE_0_NewMap1
[2022.09.13-09.09.33:809][633]LogPlayLevel: PIE: StaticDuplicateObject took: (0.012438s)
[2022.09.13-09.09.33:811][633]LogAIModule: Creating AISystem for world NewMap1
[2022.09.13-09.09.33:828][633]LogPlayLevel: PIE: World Init took: (0.018618s)
[2022.09.13-09.09.33:828][633]LogPlayLevel: PIE: Created PIE world by copying editor world from /Game/NewMap1.NewMap1 to /Game/UEDPIE_0_NewMap1.NewMap1 (0.031532s)
[2022.09.13-09.09.33:896][633]LogUObjectHash: Compacting FUObjectHashTables data took   3.98ms
[2022.09.13-09.09.33:926][633]LogInit: XAudio2 using 'Динамики (High Definition Audio Device)' : 2 channels at 48 kHz using 16 bits per sample (channel mask 0x3)
[2022.09.13-09.09.33:943][633]LogInit: FAudioDevice initialized.
[2022.09.13-09.09.33:997][633]LogLoad: Game class is 'GameModeBase'
[2022.09.13-09.09.34:099][633]LogWorld: Bringing World /Game/UEDPIE_0_NewMap1.NewMap1 up for play (max tick rate 0) at 2022.09.13-12.09.34
[2022.09.13-09.09.34:110][633]LogWorld: Bringing up level for play took: 0.013597
[2022.09.13-09.09.34:175][633]LogBlueprintActionDatabase: Requesting refresh due to module change: Voice (loaded)
[2022.09.13-09.09.34:195][633]LogBlueprintActionDatabase: Requesting refresh due to module change: MovieSceneCapture (loaded)
[2022.09.13-09.09.34:195][633]LogContentBrowser: Native class hierarchy updated for 'MovieSceneCapture' in 0.0004 seconds. Added 20 classes and 0 folders.
[2022.09.13-09.09.34:200][633]PIE: Play in editor start time for /Game/UEDPIE_0_NewMap1 0,437
[2022.09.13-09.09.34:200][633]LogBlueprintUserMessages: Late PlayInEditor Detection: Level '/Game/NewMap1.NewMap1:PersistentLevel' has LevelScriptBlueprint '/Game/NewMap1.NewMap1:PersistentLevel.NewMap1' with GeneratedClass '/Game/NewMap1.NewMap1_C' with ClassGeneratedBy '/Game/NewMap1.NewMap1:PersistentLevel.NewMap1'
[2022.09.13-09.09.34:973][657]LogOutputDevice: Warning: 

Script Stack (2 frames):
NewBlueprint_C.ExecuteUbergraph_NewBlueprint
NewBlueprint_C.ReceiveTick

[2022.09.13-09.09.36:356][657]LogStats: FPlatformStackWalk::StackWalkAndDump -  1.383 s
[2022.09.13-09.09.36:356][657]LogOutputDevice: Error: === Handled ensure: ===
[2022.09.13-09.09.36:356][657]LogOutputDevice: Error: 
[2022.09.13-09.09.36:356][657]LogOutputDevice: Error: Ensure condition failed: NewTransform.IsValid() [File:D:\Build\++UE4\Sync\Engine\Source\Runtime\Engine\Private\Components\SceneComponent.cpp] [Line: 626]
[2022.09.13-09.09.36:356][657]LogOutputDevice: Error: 
[2022.09.13-09.09.36:356][657]LogOutputDevice: Error: Stack: 
[2022.09.13-09.09.36:356][657]LogOutputDevice: Error: [Callstack] 0x00007ffe9bc7e219 UE4Editor-Engine.dll!UnknownFunction []
[2022.09.13-09.09.36:356][657]LogOutputDevice: Error: [Callstack] 0x00007ffe9aaf6edf UE4Editor-Engine.dll!UnknownFunction []
[2022.09.13-09.09.36:356][657]LogOutputDevice: Error: [Callstack] 0x00007ffe9aad6ce4 UE4Editor-Engine.dll!UnknownFunction []
[2022.09.13-09.09.36:356][657]LogOutputDevice: Error: [Callstack] 0x00007ffe9aa82137 UE4Editor-Engine.dll!UnknownFunction []
[2022.09.13-09.09.36:356][657]LogOutputDevice: Error: [Callstack] 0x00007ffe9aaea351 UE4Editor-Engine.dll!UnknownFunction []
[2022.09.13-09.09.36:356][657]LogOutputDevice: Error: [Callstack] 0x00007ffe9aaecdca UE4Editor-Engine.dll!UnknownFunction []
[2022.09.13-09.09.36:356][657]LogOutputDevice: Error: [Callstack] 0x00007ffe9aad7b3c UE4Editor-Engine.dll!UnknownFunction []
[2022.09.13-09.09.36:356][657]LogOutputDevice: Error: [Callstack] 0x00007ffe9a614a9c UE4Editor-Engine.dll!UnknownFunction []
[2022.09.13-09.09.36:356][657]LogOutputDevice: Error: [Callstack] 0x00007ffea1a6bac8 UE4Editor-CoreUObject.dll!UnknownFunction []
[2022.09.13-09.09.36:356][657]LogOutputDevice: Error: [Callstack] 0x00007ffea1c600e2 UE4Editor-CoreUObject.dll!UnknownFunction []
[2022.09.13-09.09.36:356][657]LogOutputDevice: Error: [Callstack] 0x00007ffea1c7cbc1 UE4Editor-CoreUObject.dll!UnknownFunction []
[2022.09.13-09.09.36:356][657]LogOutputDevice: Error: [Callstack] 0x00007ffea1c7e98d UE4Editor-CoreUObject.dll!UnknownFunction []
[2022.09.13-09.09.36:356][657]LogOutputDevice: Error: [Callstack] 0x00007ffea1c55efb UE4Editor-CoreUObject.dll!UnknownFunction []
[2022.09.13-09.09.36:356][657]LogOutputDevice: Error: [Callstack] 0x00007ffea1c7e6a9 UE4Editor-CoreUObject.dll!UnknownFunction []
[2022.09.13-09.09.36:356][657]LogOutputDevice: Error: [Callstack] 0x00007ffea1c7e98d UE4Editor-CoreUObject.dll!UnknownFunction []
[2022.09.13-09.09.36:356][657]LogOutputDevice: Error: [Callstack] 0x00007ffea1c7e378 UE4Editor-CoreUObject.dll!UnknownFunction []
[2022.09.13-09.09.36:356][657]LogOutputDevice: Error: [Callstack] 0x00007ffea1a6bac8 UE4Editor-CoreUObject.dll!UnknownFunction []
[2022.09.13-09.09.36:356][657]LogOutputDevice: Error: [Callstack] 0x00007ffea1c7df07 UE4Editor-CoreUObject.dll!UnknownFunction []
[2022.09.13-09.09.36:356][657]LogOutputDevice: Error: [Callstack] 0x00007ffe9a6a9ff3 UE4Editor-Engine.dll!UnknownFunction []
[2022.09.13-09.09.36:356][657]LogOutputDevice: Error: [Callstack] 0x00007ffe9b7a654a UE4Editor-Engine.dll!UnknownFunction []
[2022.09.13-09.09.36:356][657]LogOutputDevice: Error: [Callstack] 0x00007ffe9a6bf99e UE4Editor-Engine.dll!UnknownFunction []
[2022.09.13-09.09.36:356][657]LogOutputDevice: Error: [Callstack] 0x00007ffe9a6bfea2 UE4Editor-Engine.dll!UnknownFunction []
[2022.09.13-09.09.36:356][657]LogOutputDevice: Error: [Callstack] 0x00007ffe9a68aeed UE4Editor-Engine.dll!UnknownFunction []
[2022.09.13-09.09.36:356][657]LogOutputDevice: Error: [Callstack] 0x00007ffe9b6472bc UE4Editor-Engine.dll!UnknownFunction []
[2022.09.13-09.09.36:356][657]LogOutputDevice: Error: [Callstack] 0x00007ffe9ced22d8 UE4Editor-Core.dll!UnknownFunction []
[2022.09.13-09.09.36:356][657]LogOutputDevice: Error: [Callstack] 0x00007ffe9ced2563 UE4Editor-Core.dll!UnknownFunction []
[2022.09.13-09.09.36:356][657]LogOutputDevice: Error: [Callstack] 0x00007ffe9cee2309 UE4Editor-Core.dll!UnknownFunction []
[2022.09.13-09.09.36:356][657]LogOutputDevice: Error: [Callstack] 0x00007ffe9b68f9e3 UE4Editor-Engine.dll!UnknownFunction []
[2022.09.13-09.09.36:356][657]LogOutputDevice: Error: [Callstack] 0x00007ffe9b69bd12 UE4Editor-Engine.dll!UnknownFunction []
[2022.09.13-09.09.36:356][657]LogOutputDevice: Error: [Callstack] 0x00007ffe9aebdc4f UE4Editor-Engine.dll!UnknownFunction []
[2022.09.13-09.09.36:356][657]LogOutputDevice: Error: [Callstack] 0x00007ffe9aec7e28 UE4Editor-Engine.dll!UnknownFunction []
[2022.09.13-09.09.36:356][657]LogOutputDevice: Error: [Callstack] 0x00007ffe992102f7 UE4Editor-UnrealEd.dll!UnknownFunction []
[2022.09.13-09.09.36:356][657]LogOutputDevice: Error: [Callstack] 0x00007ffe99a2d396 UE4Editor-UnrealEd.dll!UnknownFunction []
[2022.09.13-09.09.36:356][657]LogOutputDevice: Error: [Callstack] 0x00007ff60dc46bb1 UE4Editor.exe!UnknownFunction []
[2022.09.13-09.09.36:357][657]LogOutputDevice: Error: [Callstack] 0x00007ff60dc5554c UE4Editor.exe!UnknownFunction []
[2022.09.13-09.09.36:357][657]LogOutputDevice: Error: [Callstack] 0x00007ff60dc555ca UE4Editor.exe!UnknownFunction []
[2022.09.13-09.09.36:357][657]LogOutputDevice: Error: [Callstack] 0x00007ff60dc6316c UE4Editor.exe!UnknownFunction []
[2022.09.13-09.09.36:357][657]LogOutputDevice: Error: [Callstack] 0x00007ff60dc65b8e UE4Editor.exe!UnknownFunction []
[2022.09.13-09.09.36:357][657]LogOutputDevice: Error: [Callstack] 0x00007ffefd5b7034 KERNEL32.DLL!UnknownFunction []
[2022.09.13-09.09.36:357][657]LogOutputDevice: Error: [Callstack] 0x00007ffefe7a2651 ntdll.dll!UnknownFunction []
[2022.09.13-09.09.36:357][657]LogOutputDevice: Error: 
[2022.09.13-09.09.36:367][657]LogStats:                SubmitErrorReport -  0.000 s
[2022.09.13-09.09.42:784][657]LogStats:                    SendNewReport -  6.416 s
[2022.09.13-09.09.42:784][657]LogStats:             FDebug::EnsureFailed -  7.810 s
[2022.09.13-09.09.42:797][657]LogOutputDevice: Warning: 

Script Stack (2 frames):
NewBlueprint_C.ExecuteUbergraph_NewBlueprint
NewBlueprint_C.ReceiveTick

[2022.09.13-09.09.42:907][657]LogStats: FPlatformStackWalk::StackWalkAndDump -  0.110 s
[2022.09.13-09.09.42:908][657]LogOutputDevice: Error: === Handled ensure: ===
[2022.09.13-09.09.42:908][657]LogOutputDevice: Error: 
[2022.09.13-09.09.42:908][657]LogOutputDevice: Error: Ensure condition failed: !NewTransform.ContainsNaN() [File:D:\Build\++UE4\Sync\Engine\Source\Runtime\Engine\Private\PhysicsEngine\BodyInstance.cpp] [Line: 1994]
[2022.09.13-09.09.42:908][657]LogOutputDevice: Error: SetBodyTransform contains NaN (/Game/UEDPIE_0_NewMap1.NewMap1:PersistentLevel.NewBlueprint4.Sphere)
[2022.09.13-09.09.42:908][657]LogOutputDevice: Error: -inf,inf,100.000000|0.000000,0.000000,0.000000|1.000000,1.000000,1.000000
[2022.09.13-09.09.42:908][657]LogOutputDevice: Error: Stack: 
[2022.09.13-09.09.42:908][657]LogOutputDevice: Error: [Callstack] 0x00007ffe9bcd8b76 UE4Editor-Engine.dll!UnknownFunction []
[2022.09.13-09.09.42:908][657]LogOutputDevice: Error: [Callstack] 0x00007ffe9b1e7221 UE4Editor-Engine.dll!UnknownFunction []
[2022.09.13-09.09.42:908][657]LogOutputDevice: Error: [Callstack] 0x00007ffe9aa8ea47 UE4Editor-Engine.dll!UnknownFunction []
[2022.09.13-09.09.42:908][657]LogOutputDevice: Error: [Callstack] 0x00007ffe9aa843ce UE4Editor-Engine.dll!UnknownFunction []
[2022.09.13-09.09.42:908][657]LogOutputDevice: Error: [Callstack] 0x00007ffe9aadf71d UE4Editor-Engine.dll!UnknownFunction []
[2022.09.13-09.09.42:908][657]LogOutputDevice: Error: [Callstack] 0x00007ffe9aaf6fb9 UE4Editor-Engine.dll!UnknownFunction []
[2022.09.13-09.09.42:908][657]LogOutputDevice: Error: [Callstack] 0x00007ffe9aad6ce4 UE4Editor-Engine.dll!UnknownFunction []
[2022.09.13-09.09.42:908][657]LogOutputDevice: Error: [Callstack] 0x00007ffe9aa82137 UE4Editor-Engine.dll!UnknownFunction []
[2022.09.13-09.09.42:908][657]LogOutputDevice: Error: [Callstack] 0x00007ffe9aaea351 UE4Editor-Engine.dll!UnknownFunction []
[2022.09.13-09.09.42:908][657]LogOutputDevice: Error: [Callstack] 0x00007ffe9aaecdca UE4Editor-Engine.dll!UnknownFunction []
[2022.09.13-09.09.42:908][657]LogOutputDevice: Error: [Callstack] 0x00007ffe9aad7b3c UE4Editor-Engine.dll!UnknownFunction []
[2022.09.13-09.09.42:908][657]LogOutputDevice: Error: [Callstack] 0x00007ffe9a614a9c UE4Editor-Engine.dll!UnknownFunction []
[2022.09.13-09.09.42:908][657]LogOutputDevice: Error: [Callstack] 0x00007ffea1a6bac8 UE4Editor-CoreUObject.dll!UnknownFunction []
[2022.09.13-09.09.42:908][657]LogOutputDevice: Error: [Callstack] 0x00007ffea1c600e2 UE4Editor-CoreUObject.dll!UnknownFunction []
[2022.09.13-09.09.42:908][657]LogOutputDevice: Error: [Callstack] 0x00007ffea1c7cbc1 UE4Editor-CoreUObject.dll!UnknownFunction []
[2022.09.13-09.09.42:908][657]LogOutputDevice: Error: [Callstack] 0x00007ffea1c7e98d UE4Editor-CoreUObject.dll!UnknownFunction []
[2022.09.13-09.09.42:908][657]LogOutputDevice: Error: [Callstack] 0x00007ffea1c55efb UE4Editor-CoreUObject.dll!UnknownFunction []
[2022.09.13-09.09.42:908][657]LogOutputDevice: Error: [Callstack] 0x00007ffea1c7e6a9 UE4Editor-CoreUObject.dll!UnknownFunction []
[2022.09.13-09.09.42:908][657]LogOutputDevice: Error: [Callstack] 0x00007ffea1c7e98d UE4Editor-CoreUObject.dll!UnknownFunction []
[2022.09.13-09.09.42:908][657]LogOutputDevice: Error: [Callstack] 0x00007ffea1c7e378 UE4Editor-CoreUObject.dll!UnknownFunction []
[2022.09.13-09.09.42:908][657]LogOutputDevice: Error: [Callstack] 0x00007ffea1a6bac8 UE4Editor-CoreUObject.dll!UnknownFunction []
[2022.09.13-09.09.42:908][657]LogOutputDevice: Error: [Callstack] 0x00007ffea1c7df07 UE4Editor-CoreUObject.dll!UnknownFunction []
[2022.09.13-09.09.42:908][657]LogOutputDevice: Error: [Callstack] 0x00007ffe9a6a9ff3 UE4Editor-Engine.dll!UnknownFunction []
[2022.09.13-09.09.42:908][657]LogOutputDevice: Error: [Callstack] 0x00007ffe9b7a654a UE4Editor-Engine.dll!UnknownFunction []
[2022.09.13-09.09.42:908][657]LogOutputDevice: Error: [Callstack] 0x00007ffe9a6bf99e UE4Editor-Engine.dll!UnknownFunction []
[2022.09.13-09.09.42:908][657]LogOutputDevice: Error: [Callstack] 0x00007ffe9a6bfea2 UE4Editor-Engine.dll!UnknownFunction []
[2022.09.13-09.09.42:908][657]LogOutputDevice: Error: [Callstack] 0x00007ffe9a68aeed UE4Editor-Engine.dll!UnknownFunction []
[2022.09.13-09.09.42:908][657]LogOutputDevice: Error: [Callstack] 0x00007ffe9b6472bc UE4Editor-Engine.dll!UnknownFunction []
[2022.09.13-09.09.42:908][657]LogOutputDevice: Error: [Callstack] 0x00007ffe9ced22d8 UE4Editor-Core.dll!UnknownFunction []
[2022.09.13-09.09.42:908][657]LogOutputDevice: Error: [Callstack] 0x00007ffe9ced2563 UE4Editor-Core.dll!UnknownFunction []
[2022.09.13-09.09.42:908][657]LogOutputDevice: Error: [Callstack] 0x00007ffe9cee2309 UE4Editor-Core.dll!UnknownFunction []
[2022.09.13-09.09.42:908][657]LogOutputDevice: Error: [Callstack] 0x00007ffe9b68f9e3 UE4Editor-Engine.dll!UnknownFunction []
[2022.09.13-09.09.42:908][657]LogOutputDevice: Error: [Callstack] 0x00007ffe9b69bd12 UE4Editor-Engine.dll!UnknownFunction []
[2022.09.13-09.09.42:908][657]LogOutputDevice: Error: [Callstack] 0x00007ffe9aebdc4f UE4Editor-Engine.dll!UnknownFunction []
[2022.09.13-09.09.42:908][657]LogOutputDevice: Error: [Callstack] 0x00007ffe9aec7e28 UE4Editor-Engine.dll!UnknownFunction []
[2022.09.13-09.09.42:908][657]LogOutputDevice: Error: [Callstack] 0x00007ffe992102f7 UE4Editor-UnrealEd.dll!UnknownFunction []
[2022.09.13-09.09.42:908][657]LogOutputDevice: Error: [Callstack] 0x00007ffe99a2d396 UE4Editor-UnrealEd.dll!UnknownFunction []
[2022.09.13-09.09.42:908][657]LogOutputDevice: Error: [Callstack] 0x00007ff60dc46bb1 UE4Editor.exe!UnknownFunction []
[2022.09.13-09.09.42:908][657]LogOutputDevice: Error: [Callstack] 0x00007ff60dc5554c UE4Editor.exe!UnknownFunction []
[2022.09.13-09.09.42:908][657]LogOutputDevice: Error: [Callstack] 0x00007ff60dc555ca UE4Editor.exe!UnknownFunction []
[2022.09.13-09.09.42:908][657]LogOutputDevice: Error: [Callstack] 0x00007ff60dc6316c UE4Editor.exe!UnknownFunction []
[2022.09.13-09.09.42:908][657]LogOutputDevice: Error: [Callstack] 0x00007ff60dc65b8e UE4Editor.exe!UnknownFunction []
[2022.09.13-09.09.42:908][657]LogOutputDevice: Error: [Callstack] 0x00007ffefd5b7034 KERNEL32.DLL!UnknownFunction []
[2022.09.13-09.09.42:908][657]LogOutputDevice: Error: [Callstack] 0x00007ffefe7a2651 ntdll.dll!UnknownFunction []
[2022.09.13-09.09.42:908][657]LogOutputDevice: Error: 
[2022.09.13-09.09.42:917][657]LogStats:                SubmitErrorReport -  0.000 s
